{
  "app_id": "49559",
  "auth_key": "r3vtZmYt-wHQ3T2",
  "auth_secret": "nzV2EOF8gKeBAdN",
  "account_key": "HzZgCe5QmC61bszoD55B",
  "api_domain": "https://api.quickblox.com",
  "chat_domain": "chat.quickblox.com",
  "gcm_sender_id": "761750217637"
}